The Tidyverse
…
dplyr:

final <- flights %>% 
  group_by(year, month, day) %>%
  select(arr_delay, dep_delay) %>%
  summarize(arr = mean(arr_delay, na.rm = TRUE),
            dep = mean(dep_delay, na.rm = TRUE)) %>%
  filter(arr > 30, dep > 30) %>% 
  arrange(desc(arr))

A dplyr example

## Source: local data frame [36 x 5]
## Groups: year, month [10]
## 
##     year month   day      arr      dep
##    <int> <int> <int>    <dbl>    <dbl>
## 1   2013     3     8 85.86216 83.53692
## 2   2013     6    13 63.75369 45.79083
## 3   2013     7    22 62.76340 46.66705
## 4   2013     5    23 61.97090 51.14472
## 5   2013     7    10 59.62648 52.86070
## 6   2013     9    12 58.91242 49.95875
## 7   2013     7     1 58.28050 56.23383
## 8   2013    12    17 55.87186 40.70560
## 9   2013     8     8 55.48116 43.34995
## 10  2013    12     5 51.66625 52.32799
## # ... with 26 more rows
…
regressions %>% augment(fit)

## Source: local data frame [32 x 12]
## Groups: cyl [3]
## 
##      cyl   mpg    wt  qsec  gear  .fitted  .se.fit     .resid      .hat
##    <dbl> <dbl> <dbl> <dbl> <dbl>    <dbl>    <dbl>      <dbl>     <dbl>
## 1      4  22.8 2.320 18.61     4 25.27440 1.134435 -2.4744004 0.1345981
## 2      4  24.4 3.190 20.00     4 20.84650 1.921315  3.5535011 0.3860794
## 3      4  22.8 3.150 22.90     4 25.83925 2.801099 -3.0392455 0.8206094
## 4      4  32.4 2.200 19.47     4 27.58455 1.015713  4.8154495 0.1079001
## 5      4  30.4 1.615 18.52     4 30.53714 1.615965 -0.1371379 0.2731136
## 6      4  33.9 1.835 19.90     4 31.07933 1.729742  2.8206732 0.3129263
## 7      4  21.5 2.465 20.01     3 23.40647 2.361279 -1.9064719 0.5831418
## 8      4  27.3 1.935 18.90     4 28.69638 1.188317 -1.3963839 0.1476877
## 9      4  26.0 2.140 16.70     5 26.58675 2.118420 -0.5867471 0.4693573
## 10     4  30.4 1.513 16.90     5 31.71972 2.053879 -1.3197248 0.4411938
## # ... with 22 more rows, and 3 more variables: .sigma <dbl>,
## #   .cooksd <dbl>, .std.resid <dbl>
…
